"RF","SVM","LDA","KNN"
0.44,0.43,0.34,0.45
0.36,0.44,0.43,0.51
0.34,0.33,0.42,0.35
0.54,0.49,0.54,0.44
0.55,0.49,0.49,0.53
0.4,0.32,0.3,0.43
0.5,0.44,0.41,0.44
0.35,0.37,0.39,0.45
0.38,0.37,0.43,0.39
0.48,0.5,0.48,0.5
0.36,0.33,0.44,0.4
0.48,0.58,0.51,0.49
0.31,0.33,0.25,0.4
0.47,0.41,0.37,0.4
0.39,0.31,0.34,0.45
0.4,0.32,0.45,0.49
0.41,0.39,0.37,0.46
0.47,0.45,0.29,0.5
0.36,0.33,0.34,0.35
0.33,0.21,0.25,0.37
0.4,0.37,0.3,0.45
0.45,0.4,0.43,0.45
0.49,0.44,0.47,0.56
0.4,0.31,0.34,0.51
0.4,0.38,0.42,0.39
0.33,0.26,0.38,0.42
0.43,0.41,0.43,0.44
0.51,0.46,0.47,0.47
0.38,0.34,0.37,0.37
0.45,0.37,0.43,0.46
0.49,0.41,0.46,0.46
0.43,0.48,0.39,0.51
0.47,0.46,0.45,0.47
0.42,0.47,0.43,0.5
0.44,0.38,0.45,0.48
0.38,0.37,0.45,0.38
0.36,0.23,0.34,0.4
0.5,0.45,0.4,0.5
0.3,0.27,0.33,0.35
0.31,0.24,0.31,0.28
0.37,0.34,0.38,0.41
0.38,0.41,0.41,0.41
0.47,0.48,0.47,0.44
0.56,0.43,0.39,0.46
0.38,0.31,0.37,0.31
0.37,0.47,0.52,0.5
0.43,0.42,0.43,0.49
0.42,0.45,0.53,0.53
0.43,0.34,0.36,0.49
0.39,0.39,0.38,0.52
0.43,0.36,0.38,0.47
0.43,0.45,0.42,0.49
0.48,0.45,0.37,0.46
0.43,0.44,0.34,0.44
0.4,0.31,0.32,0.46
0.39,0.37,0.39,0.45
0.37,0.4,0.35,0.43
0.31,0.27,0.28,0.34
0.35,0.28,0.38,0.41
0.44,0.31,0.41,0.49
0.42,0.38,0.34,0.45
0.39,0.43,0.4,0.49
0.31,0.32,0.33,0.36
0.45,0.42,0.51,0.54
0.34,0.29,0.35,0.37
0.32,0.27,0.32,0.41
0.51,0.45,0.52,0.56
0.44,0.31,0.28,0.41
0.38,0.35,0.43,0.42
0.53,0.5,0.47,0.5
0.41,0.32,0.37,0.36
0.41,0.38,0.29,0.41
0.44,0.42,0.4,0.42
0.43,0.39,0.45,0.42
0.38,0.43,0.46,0.42
0.34,0.34,0.35,0.45
0.45,0.35,0.35,0.36
0.41,0.4,0.34,0.43
0.49,0.43,0.49,0.47
0.41,0.33,0.36,0.32
0.47,0.34,0.32,0.44
0.47,0.41,0.44,0.44
0.39,0.42,0.39,0.46
0.38,0.32,0.36,0.41
0.44,0.4,0.39,0.49
0.49,0.42,0.48,0.45
0.32,0.28,0.39,0.44
0.34,0.37,0.47,0.36
0.41,0.38,0.42,0.41
0.37,0.31,0.35,0.42
0.38,0.37,0.39,0.36
0.34,0.36,0.39,0.42
0.35,0.3,0.37,0.28
0.31,0.27,0.35,0.39
0.28,0.36,0.4,0.41
0.35,0.42,0.33,0.49
0.43,0.35,0.42,0.48
0.44,0.41,0.41,0.41
0.31,0.29,0.33,0.35
0.4,0.42,0.47,0.5
0.39,0.32,0.29,0.41
0.36,0.32,0.4,0.46
0.38,0.42,0.41,0.48
0.48,0.45,0.49,0.5
0.45,0.37,0.46,0.45
0.37,0.36,0.38,0.47
0.48,0.44,0.39,0.34
0.38,0.37,0.35,0.41
0.39,0.4,0.43,0.44
0.4,0.43,0.43,0.44
0.43,0.4,0.36,0.44
0.42,0.34,0.39,0.4
0.38,0.41,0.32,0.44
0.38,0.37,0.41,0.35
0.51,0.59,0.49,0.54
0.31,0.32,0.4,0.39
0.46,0.43,0.42,0.43
0.48,0.35,0.35,0.44
0.43,0.31,0.33,0.42
0.31,0.3,0.42,0.35
0.39,0.32,0.43,0.32
0.4,0.43,0.45,0.39
0.3,0.33,0.31,0.45
0.36,0.34,0.36,0.37
0.38,0.38,0.45,0.4
0.36,0.29,0.36,0.38
0.41,0.37,0.33,0.46
0.52,0.59,0.53,0.6
0.47,0.36,0.31,0.48
0.28,0.37,0.33,0.37
0.41,0.45,0.42,0.55
0.34,0.32,0.42,0.38
0.41,0.46,0.43,0.52
0.36,0.33,0.38,0.39
0.28,0.28,0.39,0.38
0.42,0.38,0.46,0.37
0.45,0.4,0.43,0.53
0.3,0.33,0.34,0.44
0.42,0.42,0.38,0.35
0.42,0.46,0.41,0.43
0.42,0.4,0.38,0.47
0.41,0.41,0.32,0.58
0.33,0.42,0.38,0.39
0.34,0.3,0.3,0.33
0.32,0.32,0.38,0.42
0.48,0.46,0.46,0.49
0.41,0.41,0.38,0.42
0.32,0.31,0.38,0.34
0.38,0.37,0.35,0.34
0.45,0.43,0.48,0.45
0.48,0.36,0.35,0.5
0.44,0.45,0.42,0.44
0.38,0.34,0.43,0.32
0.25,0.29,0.35,0.44
0.44,0.43,0.45,0.39
0.36,0.31,0.3,0.38
0.31,0.37,0.4,0.44
0.35,0.32,0.35,0.4
0.45,0.44,0.47,0.51
0.28,0.31,0.4,0.44
0.39,0.28,0.32,0.45
0.31,0.38,0.34,0.38
0.43,0.46,0.49,0.58
0.33,0.31,0.29,0.39
0.43,0.35,0.33,0.41
0.4,0.38,0.39,0.45
0.39,0.4,0.36,0.44
0.28,0.32,0.33,0.38
0.41,0.3,0.33,0.41
0.32,0.31,0.34,0.38
0.27,0.24,0.3,0.32
0.49,0.35,0.4,0.49
0.42,0.34,0.29,0.37
0.32,0.26,0.33,0.4
0.38,0.25,0.39,0.41
0.44,0.37,0.45,0.37
0.44,0.35,0.34,0.36
0.41,0.43,0.4,0.44
0.42,0.39,0.37,0.39
0.38,0.37,0.4,0.37
0.37,0.3,0.35,0.29
0.46,0.36,0.45,0.52
0.45,0.37,0.45,0.46
0.51,0.4,0.42,0.53
0.34,0.34,0.34,0.33
0.44,0.4,0.46,0.5
0.24,0.23,0.23,0.42
0.34,0.31,0.34,0.42
0.46,0.43,0.5,0.41
0.42,0.35,0.43,0.52
0.43,0.43,0.42,0.45
0.42,0.36,0.26,0.4
0.34,0.38,0.34,0.44
0.39,0.33,0.43,0.43
0.45,0.35,0.33,0.44
0.32,0.32,0.29,0.4
0.43,0.34,0.3,0.44
0.29,0.29,0.32,0.35
0.42,0.34,0.4,0.4
0.41,0.46,0.47,0.49
0.5,0.54,0.48,0.54
0.43,0.43,0.38,0.43
0.34,0.38,0.4,0.38
0.31,0.3,0.26,0.4
0.43,0.38,0.42,0.39
0.29,0.34,0.36,0.43
0.33,0.39,0.42,0.47
0.4,0.4,0.45,0.45
0.38,0.31,0.4,0.39
0.45,0.39,0.42,0.43
0.41,0.44,0.5,0.41
0.43,0.34,0.38,0.44
0.48,0.43,0.46,0.49
0.39,0.41,0.32,0.44
0.38,0.4,0.38,0.46
0.47,0.44,0.39,0.41
0.39,0.35,0.29,0.43
0.38,0.4,0.44,0.47
0.42,0.28,0.34,0.39
0.46,0.52,0.47,0.44
0.37,0.37,0.36,0.42
0.41,0.41,0.4,0.47
0.29,0.28,0.32,0.41
0.37,0.32,0.39,0.3
0.42,0.4,0.36,0.48
0.55,0.5,0.48,0.51
0.4,0.34,0.34,0.4
0.51,0.46,0.41,0.41
0.46,0.41,0.35,0.5
0.39,0.36,0.39,0.46
0.32,0.29,0.32,0.35
0.51,0.54,0.47,0.49
0.29,0.23,0.33,0.32
0.49,0.46,0.44,0.34
0.25,0.28,0.32,0.3
0.41,0.44,0.41,0.51
0.36,0.34,0.41,0.37
0.39,0.31,0.36,0.46
0.36,0.35,0.37,0.42
0.47,0.38,0.43,0.44
0.34,0.36,0.43,0.43
0.54,0.48,0.58,0.47
0.4,0.38,0.42,0.57
0.39,0.31,0.35,0.41
0.41,0.52,0.45,0.52
0.38,0.41,0.48,0.38
0.44,0.37,0.34,0.46
0.41,0.34,0.37,0.45
0.34,0.34,0.4,0.51
0.39,0.36,0.42,0.35
0.39,0.41,0.43,0.47
0.34,0.34,0.4,0.49
0.41,0.4,0.46,0.38
0.31,0.39,0.45,0.4
0.42,0.34,0.35,0.34
0.43,0.37,0.4,0.42
0.45,0.47,0.47,0.45
0.33,0.33,0.31,0.38
0.4,0.48,0.43,0.48
0.39,0.34,0.35,0.35
0.45,0.42,0.43,0.34
0.45,0.47,0.4,0.6
0.49,0.36,0.39,0.48
0.42,0.32,0.39,0.36
0.44,0.46,0.44,0.47
0.39,0.41,0.38,0.46
0.42,0.4,0.47,0.53
0.33,0.34,0.33,0.44
0.37,0.42,0.44,0.5
0.4,0.43,0.5,0.45
0.3,0.34,0.37,0.43
0.4,0.35,0.43,0.37
0.28,0.31,0.36,0.41
0.42,0.36,0.35,0.51
0.32,0.32,0.34,0.38
0.38,0.34,0.38,0.38
0.32,0.3,0.37,0.42
0.44,0.43,0.51,0.43
0.37,0.35,0.39,0.49
0.56,0.5,0.48,0.36
0.39,0.28,0.39,0.37
0.4,0.41,0.42,0.47
0.36,0.32,0.34,0.39
0.32,0.31,0.41,0.34
0.36,0.37,0.36,0.41
0.39,0.34,0.42,0.4
0.46,0.35,0.26,0.47
0.46,0.41,0.37,0.47
0.31,0.32,0.35,0.38
0.34,0.41,0.43,0.39
0.45,0.29,0.32,0.45
0.44,0.43,0.36,0.46
0.4,0.39,0.44,0.4
0.45,0.36,0.33,0.41
0.35,0.31,0.37,0.42
0.33,0.31,0.36,0.39
0.38,0.43,0.39,0.52
0.47,0.43,0.48,0.43
0.41,0.33,0.38,0.48
0.56,0.41,0.36,0.54
0.4,0.36,0.43,0.46
0.37,0.48,0.44,0.44
0.46,0.55,0.53,0.47
0.6,0.54,0.48,0.46
0.52,0.5,0.43,0.47
0.53,0.49,0.53,0.41
0.35,0.49,0.44,0.55
0.51,0.42,0.47,0.43
0.45,0.32,0.36,0.42
0.43,0.56,0.52,0.63
0.61,0.6,0.61,0.5
0.72,0.63,0.54,0.52
0.54,0.66,0.58,0.55
0.53,0.47,0.45,0.47
0.51,0.53,0.54,0.5
0.42,0.54,0.42,0.5
0.45,0.43,0.45,0.49
0.63,0.65,0.56,0.58
0.49,0.48,0.47,0.44
0.54,0.61,0.5,0.49
0.38,0.4,0.42,0.48
0.48,0.61,0.54,0.56
0.46,0.51,0.42,0.53
0.55,0.56,0.56,0.51
0.45,0.43,0.49,0.44
0.54,0.62,0.53,0.48
0.57,0.5,0.49,0.48
0.43,0.53,0.56,0.49
0.55,0.52,0.56,0.59
0.52,0.52,0.51,0.52
0.6,0.68,0.58,0.63
0.54,0.49,0.46,0.6
0.62,0.62,0.48,0.64
0.53,0.47,0.45,0.55
0.32,0.38,0.42,0.37
0.53,0.51,0.49,0.51
0.55,0.46,0.47,0.51
0.39,0.4,0.38,0.44
0.55,0.58,0.51,0.52
0.62,0.51,0.5,0.53
0.52,0.49,0.54,0.55
0.41,0.43,0.37,0.5
0.6,0.54,0.59,0.49
0.46,0.47,0.49,0.57
0.59,0.68,0.64,0.59
0.47,0.47,0.52,0.52
0.55,0.51,0.51,0.55
0.47,0.44,0.5,0.47
0.53,0.68,0.58,0.58
0.58,0.53,0.54,0.54
0.4,0.45,0.54,0.42
0.54,0.55,0.6,0.51
0.49,0.5,0.47,0.47
0.54,0.58,0.45,0.61
0.5,0.58,0.47,0.57
0.55,0.5,0.57,0.51
0.54,0.52,0.49,0.51
0.53,0.59,0.55,0.56
0.57,0.58,0.61,0.51
0.57,0.61,0.56,0.61
0.55,0.57,0.5,0.47
0.55,0.59,0.54,0.58
0.57,0.56,0.58,0.52
0.48,0.58,0.49,0.52
0.48,0.46,0.47,0.46
0.55,0.48,0.47,0.57
0.5,0.46,0.36,0.56
0.54,0.57,0.5,0.64
0.4,0.41,0.43,0.55
0.46,0.6,0.54,0.48
0.62,0.71,0.63,0.53
0.54,0.54,0.49,0.51
0.47,0.4,0.37,0.49
0.46,0.42,0.5,0.46
0.57,0.58,0.54,0.61
0.54,0.44,0.43,0.5
0.61,0.43,0.45,0.41
0.55,0.46,0.52,0.5
0.51,0.55,0.45,0.61
0.42,0.42,0.46,0.45
0.48,0.53,0.48,0.49
0.4,0.46,0.5,0.45
0.43,0.42,0.39,0.52
0.46,0.53,0.43,0.41
0.67,0.64,0.53,0.6
0.45,0.42,0.36,0.5
0.57,0.54,0.52,0.55
0.46,0.5,0.49,0.44
0.54,0.52,0.41,0.46
0.55,0.48,0.49,0.56
0.5,0.52,0.5,0.48
0.46,0.44,0.52,0.49
0.42,0.53,0.51,0.49
0.42,0.53,0.46,0.42
0.47,0.53,0.52,0.52
0.42,0.48,0.47,0.45
0.61,0.57,0.57,0.43
0.31,0.45,0.45,0.5
0.45,0.31,0.29,0.4
0.59,0.64,0.62,0.64
0.55,0.45,0.56,0.48
0.55,0.61,0.49,0.55
0.52,0.5,0.47,0.46
0.39,0.43,0.43,0.46
0.41,0.57,0.49,0.64
0.47,0.45,0.51,0.54
0.4,0.36,0.45,0.38
0.46,0.45,0.42,0.47
0.6,0.48,0.51,0.5
0.66,0.61,0.7,0.57
0.57,0.59,0.62,0.63
0.56,0.6,0.61,0.56
0.72,0.8,0.56,0.66
0.48,0.46,0.48,0.45
0.49,0.53,0.48,0.48
0.54,0.56,0.51,0.55
0.5,0.47,0.44,0.38
0.61,0.51,0.56,0.49
0.51,0.47,0.46,0.45
0.52,0.44,0.54,0.46
0.44,0.47,0.48,0.5
0.42,0.45,0.48,0.47
0.53,0.43,0.48,0.51
0.48,0.58,0.57,0.58
0.54,0.4,0.48,0.44
0.55,0.55,0.62,0.47
0.48,0.51,0.48,0.52
0.43,0.47,0.47,0.55
0.53,0.51,0.53,0.54
0.63,0.51,0.54,0.57
0.44,0.47,0.47,0.49
0.57,0.55,0.58,0.49
0.6,0.61,0.53,0.6
0.64,0.67,0.64,0.5
0.58,0.59,0.57,0.59
0.58,0.51,0.5,0.53
0.52,0.53,0.48,0.47
0.59,0.55,0.54,0.51
0.66,0.58,0.56,0.69
0.45,0.44,0.44,0.53
0.38,0.46,0.39,0.49
0.39,0.39,0.39,0.52
0.49,0.54,0.58,0.48
0.57,0.59,0.61,0.5
0.46,0.58,0.45,0.47
0.47,0.48,0.48,0.5
0.44,0.49,0.53,0.4
0.47,0.39,0.41,0.4
0.55,0.56,0.53,0.53
0.44,0.51,0.48,0.59
0.48,0.48,0.46,0.45
0.37,0.47,0.44,0.56
0.56,0.59,0.46,0.65
0.56,0.55,0.48,0.54
0.49,0.56,0.49,0.54
0.54,0.56,0.52,0.51
0.53,0.52,0.47,0.5
0.5,0.45,0.4,0.47
0.57,0.57,0.55,0.52
0.45,0.41,0.43,0.4
0.48,0.49,0.48,0.45
0.44,0.41,0.49,0.58
0.44,0.43,0.47,0.37
0.5,0.49,0.42,0.5
0.57,0.52,0.57,0.47
0.5,0.59,0.52,0.57
0.48,0.39,0.39,0.45
0.49,0.54,0.45,0.44
0.38,0.46,0.41,0.49
0.58,0.62,0.62,0.6
0.52,0.5,0.5,0.47
0.48,0.46,0.44,0.44
0.49,0.53,0.51,0.47
0.68,0.57,0.49,0.53
0.57,0.58,0.51,0.49
0.54,0.44,0.4,0.63
0.49,0.6,0.48,0.59
0.45,0.54,0.47,0.5
0.59,0.59,0.48,0.59
0.53,0.52,0.48,0.54
0.42,0.38,0.4,0.49
0.53,0.49,0.4,0.52
0.33,0.38,0.46,0.46
0.38,0.47,0.41,0.43
0.53,0.57,0.46,0.52
0.36,0.5,0.53,0.42
0.5,0.48,0.49,0.56
0.5,0.55,0.44,0.54
0.66,0.62,0.5,0.62
0.48,0.58,0.56,0.41
0.48,0.49,0.48,0.4
0.53,0.48,0.55,0.41
0.59,0.51,0.56,0.52
0.42,0.41,0.47,0.51
0.65,0.64,0.61,0.61
0.52,0.4,0.47,0.58
0.58,0.59,0.53,0.49
0.43,0.49,0.53,0.46
0.46,0.5,0.5,0.53
0.59,0.55,0.5,0.5
0.57,0.55,0.56,0.51
0.51,0.57,0.51,0.52
0.49,0.5,0.56,0.36
0.54,0.46,0.49,0.49
0.43,0.36,0.41,0.48
0.65,0.66,0.7,0.65
0.59,0.51,0.47,0.48
0.48,0.36,0.42,0.46
0.54,0.51,0.5,0.53
0.47,0.61,0.56,0.5
0.45,0.47,0.51,0.41
0.5,0.52,0.55,0.52
0.53,0.52,0.42,0.47
0.5,0.42,0.53,0.54
0.48,0.55,0.56,0.48
0.45,0.53,0.55,0.48
0.4,0.52,0.54,0.4
0.67,0.63,0.6,0.57
0.5,0.46,0.52,0.49
0.47,0.42,0.48,0.5
0.51,0.57,0.46,0.51
0.55,0.54,0.51,0.59
0.45,0.41,0.46,0.5
0.59,0.57,0.53,0.6
0.5,0.46,0.41,0.52
0.49,0.59,0.63,0.59
0.48,0.49,0.38,0.62
0.47,0.46,0.52,0.45
0.53,0.64,0.52,0.61
0.55,0.45,0.47,0.49
0.5,0.39,0.43,0.4
0.45,0.48,0.48,0.5
0.44,0.51,0.46,0.41
0.68,0.6,0.48,0.65
0.47,0.48,0.51,0.48
0.56,0.6,0.55,0.5
0.54,0.52,0.45,0.49
0.46,0.54,0.48,0.49
0.41,0.45,0.41,0.46
0.56,0.49,0.56,0.43
0.56,0.57,0.51,0.48
0.57,0.59,0.55,0.46
0.47,0.58,0.59,0.49
0.55,0.52,0.55,0.48
0.57,0.51,0.54,0.5
0.55,0.52,0.54,0.43
0.47,0.49,0.43,0.48
0.57,0.56,0.5,0.58
0.39,0.39,0.36,0.4
0.52,0.48,0.51,0.55
0.42,0.44,0.49,0.53
0.47,0.46,0.37,0.46
0.54,0.49,0.45,0.55
0.39,0.5,0.52,0.5
0.49,0.51,0.48,0.45
0.5,0.44,0.42,0.52
0.6,0.56,0.56,0.46
0.52,0.51,0.49,0.62
0.57,0.56,0.55,0.52
0.64,0.61,0.59,0.52
0.47,0.49,0.47,0.46
0.57,0.68,0.63,0.58
0.37,0.33,0.34,0.44
0.37,0.44,0.47,0.49
0.52,0.5,0.49,0.54
0.51,0.5,0.51,0.42
0.53,0.49,0.45,0.54
0.53,0.52,0.46,0.47
0.58,0.71,0.61,0.57
0.5,0.53,0.6,0.54
0.43,0.49,0.48,0.47
0.5,0.45,0.48,0.48
0.53,0.4,0.41,0.57
0.6,0.65,0.59,0.65
0.47,0.46,0.5,0.6
0.53,0.48,0.5,0.52
0.5,0.56,0.51,0.53
0.49,0.46,0.42,0.5
0.6,0.59,0.58,0.58
0.48,0.53,0.52,0.41
0.51,0.4,0.52,0.51
0.45,0.41,0.43,0.41
0.6,0.45,0.59,0.51
0.64,0.59,0.69,0.42
0.48,0.54,0.55,0.47
0.47,0.55,0.55,0.46
0.55,0.56,0.47,0.52
0.44,0.44,0.44,0.48
0.52,0.5,0.43,0.44
0.35,0.38,0.48,0.44
0.5,0.56,0.5,0.53
0.48,0.41,0.44,0.52
0.5,0.51,0.55,0.55
0.52,0.61,0.54,0.56
0.5,0.47,0.49,0.52
0.47,0.45,0.47,0.5
0.52,0.46,0.5,0.43
0.56,0.58,0.51,0.44
0.61,0.65,0.63,0.63
0.54,0.57,0.49,0.53
0.47,0.39,0.39,0.49
0.49,0.51,0.46,0.51
0.43,0.41,0.39,0.46
0.56,0.57,0.57,0.49
0.49,0.58,0.5,0.55
0.62,0.68,0.59,0.62
0.61,0.67,0.57,0.55
0.44,0.48,0.48,0.48
0.52,0.54,0.44,0.55
0.57,0.66,0.56,0.53
0.49,0.49,0.44,0.51
0.41,0.49,0.46,0.48
0.53,0.57,0.58,0.53
0.66,0.61,0.69,0.52
0.62,0.46,0.45,0.46
0.58,0.52,0.56,0.53
0.5,0.4,0.38,0.46
0.49,0.54,0.42,0.47
0.4,0.55,0.53,0.53
0.46,0.51,0.52,0.49
0.57,0.53,0.52,0.51
0.49,0.37,0.37,0.5
0.54,0.59,0.5,0.51
0.49,0.49,0.52,0.52
0.58,0.54,0.46,0.56
0.52,0.42,0.41,0.55
0.5,0.44,0.41,0.43
0.59,0.65,0.59,0.59
0.49,0.57,0.49,0.42
0.57,0.55,0.52,0.56
0.65,0.65,0.63,0.61
0.54,0.5,0.46,0.52
0.59,0.6,0.55,0.54
0.53,0.53,0.6,0.61
0.6,0.55,0.45,0.55
0.4,0.35,0.37,0.32
0.45,0.45,0.48,0.46
0.54,0.58,0.6,0.45
0.5,0.58,0.45,0.53
0.46,0.54,0.48,0.49
0.45,0.5,0.45,0.49
0.5,0.52,0.47,0.55
0.55,0.44,0.45,0.47
0.52,0.47,0.46,0.47
0.5,0.44,0.41,0.41
0.45,0.5,0.43,0.43
0.42,0.4,0.42,0.52
0.57,0.51,0.47,0.52
0.49,0.57,0.55,0.57
0.44,0.41,0.39,0.5
0.46,0.46,0.53,0.41
0.5,0.54,0.55,0.57
0.42,0.43,0.45,0.52
0.45,0.6,0.49,0.53
0.5,0.53,0.48,0.49
0.54,0.5,0.49,0.48
0.62,0.71,0.62,0.58
0.5,0.46,0.45,0.46
0.5,0.49,0.49,0.44
0.58,0.55,0.55,0.6
0.49,0.48,0.59,0.52
0.48,0.47,0.48,0.42
0.4,0.43,0.42,0.54
0.35,0.46,0.45,0.36
0.5,0.55,0.48,0.53
0.41,0.48,0.41,0.46
0.46,0.51,0.51,0.51
0.56,0.65,0.54,0.54
0.55,0.66,0.64,0.52
0.38,0.45,0.47,0.52
0.53,0.6,0.63,0.5
0.54,0.48,0.44,0.46
0.49,0.52,0.43,0.51
0.41,0.34,0.36,0.39
0.57,0.61,0.62,0.53
0.51,0.45,0.5,0.51
0.42,0.43,0.54,0.46
0.39,0.39,0.4,0.47
0.54,0.59,0.63,0.51
0.57,0.64,0.56,0.57
0.5,0.61,0.58,0.6
0.46,0.54,0.58,0.48
0.32,0.4,0.4,0.46
0.5,0.51,0.53,0.52
0.54,0.56,0.49,0.53
0.64,0.61,0.56,0.71
0.45,0.45,0.47,0.52
0.42,0.48,0.44,0.55
0.45,0.46,0.48,0.48
0.45,0.46,0.44,0.49
0.6,0.56,0.53,0.51
0.48,0.49,0.58,0.38
0.52,0.44,0.46,0.56
0.5,0.37,0.37,0.35
0.52,0.51,0.58,0.51
0.6,0.43,0.5,0.49
0.5,0.48,0.49,0.43
0.43,0.43,0.39,0.43
0.47,0.51,0.53,0.44
0.47,0.59,0.58,0.45
0.56,0.61,0.65,0.56
0.41,0.36,0.39,0.51
0.61,0.67,0.61,0.57
0.59,0.54,0.48,0.56
0.52,0.53,0.55,0.5
0.5,0.53,0.54,0.51
0.51,0.5,0.54,0.54
0.44,0.39,0.43,0.49
0.52,0.58,0.54,0.52
0.59,0.6,0.61,0.55
0.49,0.55,0.53,0.47
0.5,0.56,0.6,0.5
0.41,0.4,0.42,0.46
0.57,0.61,0.55,0.69
0.51,0.54,0.45,0.52
0.53,0.59,0.58,0.51
0.47,0.46,0.46,0.43
0.55,0.49,0.48,0.53
0.61,0.69,0.54,0.56
0.47,0.48,0.52,0.54
0.41,0.4,0.49,0.43
0.52,0.49,0.44,0.46
0.5,0.54,0.49,0.55
0.53,0.53,0.56,0.52
0.44,0.46,0.5,0.55
0.55,0.6,0.6,0.62
0.52,0.53,0.59,0.38
0.46,0.44,0.47,0.56
0.44,0.51,0.54,0.45
0.58,0.57,0.51,0.54
0.52,0.54,0.45,0.52
0.49,0.49,0.45,0.54
0.48,0.56,0.51,0.57
0.4,0.46,0.46,0.47
0.5,0.52,0.54,0.44
0.41,0.44,0.4,0.47
0.46,0.54,0.55,0.47
0.51,0.43,0.5,0.48
0.45,0.52,0.43,0.46
0.52,0.55,0.49,0.55
0.5,0.52,0.44,0.46
0.58,0.51,0.52,0.51
0.54,0.56,0.5,0.47
0.45,0.42,0.43,0.54
0.44,0.41,0.37,0.58
0.57,0.57,0.5,0.6
0.4,0.46,0.49,0.45
0.49,0.56,0.39,0.51
0.4,0.53,0.47,0.51
0.44,0.5,0.44,0.49
0.37,0.39,0.36,0.34
0.45,0.47,0.38,0.47
0.59,0.6,0.6,0.53
0.52,0.59,0.55,0.38
0.47,0.53,0.53,0.64
0.45,0.5,0.42,0.54
0.47,0.4,0.4,0.52
0.47,0.47,0.49,0.5
0.45,0.5,0.59,0.42
0.51,0.53,0.5,0.48
0.53,0.55,0.5,0.52
0.47,0.53,0.5,0.51
0.55,0.57,0.56,0.6
0.59,0.62,0.54,0.53
0.49,0.57,0.47,0.53
0.48,0.43,0.42,0.49
0.51,0.52,0.52,0.5
0.48,0.55,0.53,0.54
0.53,0.59,0.45,0.53
0.52,0.48,0.46,0.55
0.47,0.49,0.49,0.51
0.41,0.41,0.38,0.45
0.55,0.53,0.51,0.5
0.52,0.55,0.49,0.48
0.54,0.54,0.6,0.51
0.51,0.5,0.46,0.53
0.54,0.44,0.49,0.51
0.44,0.46,0.44,0.49
0.43,0.48,0.42,0.45
0.49,0.51,0.51,0.48
0.57,0.55,0.53,0.48
0.61,0.64,0.53,0.45
0.61,0.63,0.64,0.47
0.53,0.53,0.51,0.55
0.51,0.61,0.51,0.5
0.63,0.67,0.55,0.6
0.31,0.34,0.35,0.4
0.54,0.5,0.49,0.58
0.57,0.54,0.51,0.62
0.53,0.58,0.59,0.57
0.58,0.43,0.44,0.53
0.64,0.64,0.58,0.63
0.43,0.48,0.45,0.41
0.54,0.58,0.55,0.51
0.5,0.45,0.5,0.51
0.51,0.56,0.53,0.67
0.56,0.54,0.53,0.53
0.65,0.54,0.51,0.51
0.55,0.47,0.43,0.49
0.53,0.6,0.51,0.63
0.55,0.51,0.49,0.58
0.4,0.5,0.51,0.47
0.49,0.56,0.53,0.59
0.63,0.58,0.48,0.64
0.55,0.58,0.49,0.58
0.41,0.36,0.4,0.48
0.53,0.51,0.57,0.6
0.51,0.45,0.49,0.48
0.51,0.54,0.48,0.48
0.58,0.49,0.52,0.52
0.37,0.53,0.4,0.55
0.48,0.55,0.53,0.49
0.6,0.56,0.49,0.55
0.47,0.42,0.41,0.54
0.57,0.47,0.53,0.48
0.48,0.58,0.56,0.48
0.58,0.59,0.5,0.49
0.67,0.74,0.64,0.59
0.58,0.56,0.56,0.57
0.45,0.45,0.46,0.38
0.52,0.49,0.54,0.55
0.48,0.58,0.63,0.48
0.42,0.62,0.55,0.54
0.56,0.59,0.59,0.68
0.47,0.46,0.47,0.51
0.5,0.48,0.49,0.45
0.47,0.5,0.46,0.47
0.4,0.55,0.5,0.57
0.53,0.57,0.53,0.52
0.52,0.55,0.42,0.53
0.43,0.51,0.49,0.49
0.63,0.71,0.71,0.53
0.62,0.54,0.61,0.56
0.52,0.51,0.42,0.54
0.62,0.49,0.46,0.57
0.58,0.5,0.52,0.5
0.42,0.49,0.6,0.49
0.44,0.51,0.43,0.55
0.52,0.46,0.43,0.55
0.52,0.54,0.62,0.51
0.49,0.43,0.47,0.49
0.44,0.45,0.48,0.5
0.52,0.54,0.46,0.49
0.56,0.62,0.58,0.65
0.56,0.68,0.62,0.56
0.46,0.49,0.44,0.59
0.49,0.55,0.53,0.53
0.5,0.53,0.48,0.46
0.49,0.55,0.53,0.54
0.43,0.47,0.46,0.52
0.51,0.63,0.55,0.52
0.57,0.52,0.51,0.46
0.55,0.49,0.5,0.59
0.64,0.54,0.58,0.56
0.46,0.44,0.37,0.49
0.58,0.62,0.56,0.5
0.51,0.6,0.55,0.58
0.54,0.58,0.46,0.51
0.48,0.48,0.47,0.48
0.6,0.56,0.52,0.47
0.58,0.53,0.52,0.5
0.55,0.47,0.5,0.55
0.66,0.68,0.63,0.58
0.54,0.45,0.47,0.5
0.5,0.61,0.62,0.54
0.59,0.53,0.49,0.5
0.51,0.48,0.53,0.5
0.51,0.46,0.48,0.5
0.48,0.57,0.59,0.49
0.5,0.47,0.47,0.51
0.45,0.48,0.42,0.48
0.44,0.49,0.49,0.53
0.49,0.54,0.49,0.46
0.53,0.55,0.62,0.55
0.44,0.43,0.37,0.51
0.5,0.5,0.4,0.54
0.51,0.48,0.51,0.49
0.52,0.52,0.59,0.48
0.55,0.58,0.55,0.57
0.58,0.61,0.5,0.53
0.42,0.41,0.45,0.49
0.53,0.52,0.53,0.56
0.49,0.66,0.6,0.58
0.48,0.48,0.4,0.53
0.45,0.52,0.55,0.59
0.51,0.51,0.54,0.39
0.5,0.55,0.51,0.51
0.59,0.47,0.46,0.55
0.52,0.43,0.43,0.46
0.49,0.48,0.46,0.46
0.49,0.38,0.37,0.41
0.51,0.52,0.43,0.47
0.67,0.7,0.59,0.61
0.45,0.44,0.43,0.39
0.48,0.44,0.45,0.5
0.48,0.52,0.45,0.55
0.46,0.64,0.56,0.47
0.54,0.56,0.54,0.54
0.48,0.55,0.57,0.47
0.47,0.48,0.51,0.41
