"RF","SVM","LDA","KNN"
0.37,0.3,0.41,0.45
0.28,0.25,0.33,0.36
0.35,0.32,0.43,0.32
0.34,0.31,0.38,0.33
0.25,0.2,0.31,0.21
0.29,0.36,0.4,0.45
0.18,0.29,0.3,0.34
0.28,0.27,0.3,0.44
0.3,0.27,0.31,0.41
0.29,0.26,0.32,0.34
0.29,0.21,0.25,0.36
0.29,0.25,0.28,0.35
0.26,0.14,0.21,0.31
0.27,0.24,0.24,0.36
0.25,0.15,0.24,0.34
0.3,0.31,0.37,0.46
0.25,0.29,0.28,0.33
0.29,0.19,0.3,0.28
0.26,0.2,0.26,0.33
0.27,0.19,0.28,0.35
0.27,0.2,0.27,0.27
0.23,0.26,0.23,0.39
0.4,0.3,0.28,0.29
0.23,0.18,0.28,0.28
0.28,0.2,0.25,0.22
0.27,0.28,0.37,0.42
0.42,0.35,0.32,0.38
0.4,0.26,0.32,0.28
0.21,0.15,0.19,0.3
0.31,0.24,0.26,0.32
0.39,0.29,0.34,0.41
0.34,0.29,0.38,0.25
0.16,0.12,0.2,0.26
0.28,0.25,0.37,0.27
0.22,0.23,0.29,0.28
0.27,0.23,0.31,0.28
0.43,0.36,0.43,0.39
0.32,0.29,0.32,0.26
0.32,0.24,0.28,0.34
0.32,0.29,0.24,0.4
0.35,0.37,0.41,0.38
0.25,0.26,0.41,0.37
0.21,0.21,0.24,0.42
0.29,0.21,0.33,0.3
0.32,0.26,0.3,0.38
0.2,0.16,0.17,0.31
0.35,0.25,0.26,0.44
0.27,0.16,0.22,0.32
0.31,0.29,0.34,0.41
0.3,0.2,0.31,0.41
0.3,0.35,0.26,0.38
0.31,0.34,0.37,0.35
0.38,0.3,0.36,0.37
0.3,0.27,0.36,0.33
0.23,0.19,0.26,0.3
0.25,0.2,0.26,0.25
0.23,0.21,0.27,0.41
0.24,0.19,0.25,0.27
0.28,0.27,0.35,0.46
0.32,0.28,0.34,0.46
0.33,0.26,0.28,0.29
0.29,0.21,0.23,0.34
0.34,0.29,0.3,0.34
0.2,0.15,0.24,0.23
0.33,0.3,0.35,0.35
0.25,0.21,0.31,0.36
0.2,0.17,0.23,0.36
0.33,0.27,0.31,0.36
0.31,0.26,0.26,0.35
0.35,0.25,0.3,0.25
0.3,0.27,0.38,0.33
0.26,0.18,0.22,0.32
0.34,0.24,0.37,0.4
0.33,0.25,0.35,0.32
0.26,0.23,0.3,0.31
0.25,0.25,0.35,0.31
0.33,0.33,0.26,0.41
0.23,0.16,0.3,0.26
0.34,0.25,0.32,0.33
0.26,0.24,0.38,0.33
0.3,0.18,0.26,0.44
0.27,0.25,0.3,0.25
0.3,0.25,0.39,0.38
0.24,0.2,0.31,0.28
0.3,0.29,0.34,0.35
0.34,0.34,0.31,0.39
0.42,0.32,0.37,0.26
0.28,0.3,0.34,0.26
0.31,0.25,0.26,0.38
0.28,0.28,0.31,0.38
0.29,0.26,0.36,0.31
0.19,0.17,0.3,0.22
0.3,0.21,0.32,0.31
0.25,0.23,0.26,0.33
0.32,0.25,0.29,0.36
0.26,0.17,0.13,0.23
0.27,0.26,0.25,0.39
0.42,0.39,0.38,0.4
0.34,0.29,0.36,0.4
0.32,0.35,0.31,0.38
0.25,0.27,0.34,0.29
0.31,0.27,0.34,0.35
0.29,0.28,0.32,0.33
0.28,0.27,0.33,0.32
0.32,0.29,0.33,0.33
0.28,0.19,0.28,0.4
0.27,0.25,0.29,0.28
0.26,0.24,0.24,0.22
0.39,0.36,0.41,0.38
0.34,0.28,0.32,0.36
0.38,0.34,0.43,0.49
0.28,0.25,0.33,0.4
0.31,0.19,0.34,0.39
0.41,0.3,0.32,0.44
0.34,0.32,0.38,0.46
0.29,0.2,0.25,0.3
0.41,0.3,0.34,0.45
0.3,0.21,0.28,0.3
0.28,0.24,0.28,0.32
0.26,0.25,0.24,0.33
0.23,0.18,0.28,0.35
0.3,0.23,0.33,0.36
0.17,0.16,0.18,0.24
0.29,0.23,0.26,0.42
0.23,0.26,0.27,0.3
0.35,0.26,0.28,0.36
0.36,0.4,0.31,0.44
0.37,0.31,0.29,0.39
0.24,0.17,0.32,0.33
0.33,0.22,0.28,0.34
0.32,0.21,0.36,0.33
0.36,0.3,0.34,0.32
0.3,0.3,0.32,0.47
0.22,0.18,0.26,0.27
0.34,0.32,0.41,0.44
0.3,0.26,0.27,0.41
0.37,0.26,0.3,0.39
0.4,0.4,0.39,0.35
0.34,0.26,0.27,0.32
0.27,0.29,0.38,0.33
0.21,0.2,0.28,0.3
0.31,0.29,0.31,0.33
0.2,0.21,0.26,0.25
0.3,0.27,0.26,0.45
0.32,0.25,0.35,0.38
0.23,0.17,0.2,0.3
0.3,0.25,0.34,0.37
0.39,0.3,0.34,0.39
0.3,0.37,0.32,0.42
0.25,0.27,0.25,0.37
0.26,0.18,0.27,0.36
0.24,0.25,0.33,0.42
0.32,0.23,0.29,0.27
0.33,0.26,0.25,0.35
0.26,0.22,0.26,0.24
0.26,0.19,0.29,0.27
0.34,0.3,0.39,0.4
0.3,0.32,0.31,0.25
0.29,0.18,0.26,0.26
0.38,0.41,0.42,0.5
0.27,0.2,0.33,0.35
0.31,0.3,0.35,0.31
0.27,0.18,0.21,0.27
0.33,0.24,0.26,0.29
0.27,0.17,0.34,0.27
0.3,0.23,0.3,0.38
0.29,0.29,0.33,0.34
0.23,0.16,0.31,0.3
0.23,0.16,0.25,0.22
0.32,0.27,0.28,0.37
0.28,0.25,0.29,0.35
0.4,0.34,0.41,0.41
0.37,0.26,0.24,0.38
0.35,0.25,0.32,0.35
0.26,0.22,0.33,0.29
0.41,0.3,0.37,0.37
0.3,0.27,0.27,0.37
0.38,0.23,0.35,0.35
0.35,0.3,0.36,0.38
0.34,0.29,0.3,0.37
0.41,0.26,0.33,0.37
0.16,0.19,0.22,0.32
0.25,0.28,0.34,0.26
0.28,0.23,0.29,0.36
0.31,0.28,0.29,0.3
0.33,0.28,0.36,0.3
0.35,0.26,0.33,0.38
0.25,0.24,0.31,0.29
0.41,0.35,0.32,0.41
0.32,0.22,0.28,0.33
0.34,0.27,0.29,0.38
0.21,0.21,0.22,0.24
0.26,0.26,0.32,0.31
0.27,0.23,0.31,0.43
0.31,0.28,0.34,0.33
0.2,0.17,0.31,0.23
0.27,0.2,0.21,0.29
0.38,0.37,0.4,0.3
0.28,0.27,0.31,0.37
0.27,0.19,0.2,0.3
0.25,0.17,0.29,0.3
0.26,0.18,0.27,0.27
0.31,0.21,0.3,0.28
0.28,0.26,0.33,0.34
0.32,0.26,0.27,0.36
0.3,0.23,0.41,0.31
0.26,0.29,0.34,0.49
0.25,0.21,0.26,0.26
0.38,0.31,0.35,0.33
0.36,0.26,0.32,0.36
0.28,0.24,0.29,0.36
0.33,0.23,0.3,0.3
0.33,0.3,0.34,0.4
0.36,0.31,0.42,0.39
0.27,0.24,0.26,0.33
0.32,0.28,0.31,0.38
0.26,0.18,0.29,0.28
0.29,0.18,0.28,0.33
0.37,0.33,0.36,0.38
0.33,0.25,0.33,0.36
0.21,0.16,0.23,0.34
0.27,0.21,0.26,0.36
0.29,0.21,0.27,0.32
0.25,0.18,0.25,0.29
0.31,0.18,0.31,0.3
0.26,0.19,0.24,0.29
0.23,0.23,0.24,0.31
0.23,0.25,0.33,0.28
0.31,0.32,0.23,0.38
0.25,0.11,0.18,0.29
0.26,0.27,0.35,0.35
0.26,0.24,0.34,0.39
0.29,0.22,0.26,0.31
0.25,0.17,0.27,0.35
0.27,0.22,0.27,0.32
0.29,0.19,0.24,0.29
0.33,0.26,0.32,0.36
0.31,0.23,0.28,0.27
0.28,0.23,0.27,0.29
0.35,0.3,0.3,0.35
0.31,0.19,0.29,0.37
0.4,0.28,0.34,0.34
0.32,0.23,0.27,0.4
0.25,0.21,0.31,0.3
0.28,0.2,0.28,0.34
0.33,0.32,0.43,0.42
0.3,0.22,0.31,0.32
0.41,0.37,0.42,0.51
0.23,0.19,0.25,0.29
0.37,0.32,0.36,0.33
0.3,0.27,0.31,0.31
0.21,0.12,0.17,0.26
0.38,0.32,0.42,0.4
0.29,0.21,0.32,0.32
0.31,0.25,0.27,0.33
0.36,0.33,0.31,0.35
0.25,0.22,0.26,0.37
0.33,0.27,0.34,0.43
0.28,0.16,0.24,0.23
0.26,0.28,0.32,0.33
0.26,0.26,0.33,0.26
0.33,0.28,0.26,0.38
0.23,0.24,0.3,0.32
0.28,0.3,0.36,0.38
0.29,0.24,0.3,0.32
0.31,0.29,0.31,0.42
0.31,0.34,0.31,0.38
0.29,0.2,0.3,0.27
0.3,0.28,0.25,0.37
0.26,0.23,0.31,0.37
0.33,0.22,0.24,0.33
0.34,0.25,0.23,0.38
0.45,0.41,0.41,0.43
0.33,0.25,0.33,0.32
0.27,0.24,0.27,0.37
0.3,0.23,0.26,0.34
0.33,0.24,0.29,0.31
0.25,0.22,0.35,0.35
0.31,0.26,0.31,0.32
0.27,0.21,0.32,0.32
0.31,0.3,0.37,0.37
0.23,0.26,0.26,0.37
0.33,0.26,0.36,0.28
0.3,0.23,0.31,0.37
0.29,0.24,0.27,0.34
0.18,0.07,0.16,0.22
0.24,0.18,0.27,0.36
0.26,0.21,0.29,0.25
0.24,0.22,0.21,0.4
0.43,0.31,0.37,0.49
0.39,0.33,0.36,0.42
0.32,0.21,0.31,0.34
0.26,0.2,0.29,0.33
0.33,0.33,0.35,0.33
0.22,0.27,0.3,0.31
0.3,0.27,0.37,0.36
0.36,0.35,0.35,0.4
0.37,0.3,0.39,0.42
0.26,0.21,0.23,0.38
0.29,0.29,0.29,0.4
0.41,0.34,0.3,0.39
0.37,0.34,0.33,0.43
0.4,0.41,0.35,0.47
0.44,0.37,0.33,0.49
0.38,0.36,0.34,0.41
0.29,0.33,0.31,0.47
0.44,0.39,0.32,0.45
0.37,0.35,0.39,0.45
0.35,0.39,0.36,0.33
0.33,0.28,0.29,0.27
0.35,0.34,0.33,0.3
0.27,0.31,0.32,0.37
0.31,0.35,0.29,0.39
0.34,0.29,0.29,0.29
0.34,0.32,0.32,0.29
0.39,0.41,0.4,0.44
0.39,0.4,0.37,0.38
0.32,0.32,0.31,0.38
0.44,0.37,0.38,0.41
0.28,0.26,0.3,0.42
0.35,0.28,0.35,0.29
0.49,0.49,0.33,0.56
0.3,0.33,0.39,0.42
0.45,0.33,0.37,0.45
0.39,0.36,0.39,0.42
0.38,0.33,0.33,0.33
0.38,0.38,0.34,0.34
0.35,0.3,0.28,0.33
0.5,0.39,0.38,0.43
0.25,0.19,0.23,0.33
0.33,0.3,0.26,0.36
0.4,0.46,0.45,0.44
0.41,0.41,0.34,0.43
0.4,0.34,0.36,0.35
0.32,0.4,0.33,0.38
0.25,0.24,0.19,0.35
0.39,0.37,0.32,0.48
0.42,0.39,0.36,0.39
0.26,0.31,0.3,0.34
0.39,0.36,0.37,0.38
0.37,0.37,0.33,0.32
0.36,0.33,0.38,0.35
0.45,0.39,0.41,0.49
0.39,0.37,0.41,0.38
0.35,0.38,0.34,0.34
0.39,0.28,0.33,0.37
0.39,0.46,0.41,0.43
0.33,0.34,0.31,0.45
0.35,0.35,0.33,0.44
0.33,0.33,0.3,0.39
0.35,0.33,0.3,0.39
0.36,0.33,0.3,0.34
0.51,0.51,0.44,0.59
0.44,0.38,0.42,0.43
0.32,0.32,0.34,0.3
0.31,0.36,0.33,0.33
0.41,0.39,0.37,0.4
0.38,0.37,0.37,0.48
0.45,0.36,0.41,0.45
0.43,0.4,0.35,0.44
0.32,0.39,0.33,0.44
0.36,0.38,0.3,0.45
0.38,0.35,0.4,0.4
0.38,0.38,0.31,0.52
0.18,0.23,0.21,0.3
0.31,0.33,0.31,0.36
0.4,0.28,0.32,0.42
0.44,0.39,0.37,0.45
0.26,0.29,0.25,0.32
0.34,0.3,0.37,0.39
0.3,0.25,0.32,0.31
0.32,0.3,0.23,0.46
0.43,0.44,0.41,0.47
0.38,0.37,0.37,0.44
0.33,0.37,0.39,0.41
0.35,0.4,0.36,0.4
0.43,0.41,0.36,0.51
0.43,0.32,0.34,0.49
0.33,0.26,0.35,0.36
0.41,0.3,0.31,0.45
0.38,0.33,0.31,0.45
0.31,0.34,0.34,0.43
0.26,0.34,0.33,0.47
0.4,0.41,0.32,0.53
0.35,0.3,0.27,0.37
0.38,0.33,0.37,0.36
0.37,0.37,0.42,0.4
0.39,0.39,0.39,0.39
0.36,0.37,0.37,0.43
0.33,0.25,0.24,0.34
0.33,0.3,0.3,0.4
0.34,0.28,0.31,0.32
0.24,0.27,0.23,0.3
0.24,0.3,0.3,0.36
0.34,0.29,0.31,0.42
0.36,0.36,0.27,0.35
0.45,0.33,0.36,0.46
0.4,0.34,0.32,0.52
0.28,0.24,0.21,0.37
0.45,0.44,0.37,0.43
0.51,0.42,0.39,0.45
0.42,0.43,0.44,0.46
0.35,0.38,0.41,0.41
0.32,0.24,0.25,0.36
0.4,0.37,0.36,0.37
0.46,0.41,0.39,0.39
0.41,0.45,0.38,0.42
0.35,0.37,0.4,0.47
0.33,0.41,0.39,0.49
0.38,0.32,0.29,0.4
0.23,0.22,0.28,0.27
0.31,0.31,0.29,0.35
0.27,0.2,0.18,0.28
0.27,0.27,0.28,0.34
0.4,0.33,0.34,0.36
0.36,0.36,0.36,0.41
0.43,0.42,0.34,0.49
0.28,0.31,0.28,0.37
0.41,0.28,0.28,0.48
0.42,0.33,0.38,0.48
0.38,0.25,0.32,0.37
0.37,0.42,0.32,0.4
0.36,0.41,0.36,0.36
0.26,0.23,0.26,0.25
0.39,0.32,0.4,0.4
0.39,0.33,0.31,0.54
0.36,0.33,0.33,0.5
0.38,0.34,0.32,0.4
0.39,0.4,0.37,0.43
0.38,0.27,0.27,0.35
0.35,0.37,0.3,0.41
0.33,0.28,0.34,0.39
0.37,0.3,0.34,0.27
0.34,0.3,0.26,0.47
0.45,0.41,0.42,0.46
0.46,0.4,0.38,0.53
0.33,0.37,0.36,0.42
0.33,0.37,0.35,0.44
0.39,0.3,0.3,0.35
0.34,0.3,0.32,0.38
0.27,0.23,0.22,0.3
0.34,0.28,0.3,0.31
0.36,0.39,0.36,0.36
0.36,0.37,0.41,0.43
0.42,0.31,0.36,0.36
0.27,0.35,0.35,0.39
0.37,0.31,0.29,0.44
0.35,0.3,0.27,0.4
0.38,0.31,0.29,0.4
0.33,0.32,0.27,0.37
0.28,0.25,0.23,0.37
0.45,0.38,0.36,0.45
0.32,0.32,0.34,0.44
0.5,0.5,0.45,0.52
0.3,0.29,0.31,0.33
0.49,0.58,0.5,0.51
0.39,0.44,0.43,0.47
0.32,0.29,0.37,0.33
0.26,0.28,0.32,0.39
0.37,0.44,0.43,0.46
0.36,0.34,0.36,0.4
0.47,0.39,0.47,0.36
0.28,0.24,0.21,0.4
0.41,0.32,0.32,0.35
0.36,0.33,0.29,0.51
0.38,0.37,0.36,0.46
0.32,0.41,0.35,0.43
0.31,0.28,0.23,0.29
0.32,0.29,0.29,0.37
0.44,0.44,0.43,0.51
0.4,0.42,0.48,0.44
0.4,0.37,0.35,0.41
0.42,0.4,0.39,0.44
0.43,0.41,0.41,0.45
0.4,0.37,0.31,0.37
0.36,0.37,0.43,0.48
0.32,0.31,0.31,0.37
0.29,0.26,0.28,0.37
0.26,0.32,0.29,0.4
0.36,0.26,0.28,0.36
0.35,0.29,0.25,0.37
0.34,0.34,0.32,0.37
0.32,0.3,0.31,0.47
0.28,0.26,0.23,0.38
0.31,0.3,0.31,0.39
0.43,0.43,0.37,0.5
0.31,0.32,0.29,0.35
0.4,0.34,0.28,0.42
0.35,0.31,0.3,0.38
0.27,0.28,0.26,0.32
0.42,0.28,0.29,0.39
0.42,0.4,0.44,0.49
0.32,0.31,0.26,0.34
0.36,0.29,0.32,0.36
0.33,0.25,0.34,0.31
0.35,0.32,0.33,0.51
0.43,0.41,0.44,0.45
0.3,0.35,0.38,0.43
0.32,0.29,0.29,0.37
0.33,0.38,0.32,0.44
0.34,0.32,0.3,0.38
0.45,0.32,0.32,0.38
0.29,0.3,0.35,0.42
0.3,0.26,0.25,0.31
0.31,0.29,0.29,0.42
0.41,0.45,0.34,0.42
0.35,0.29,0.31,0.32
0.31,0.35,0.32,0.34
0.41,0.38,0.33,0.4
0.3,0.32,0.29,0.37
0.31,0.28,0.36,0.35
0.33,0.31,0.33,0.32
0.42,0.44,0.33,0.43
0.4,0.38,0.39,0.33
0.4,0.39,0.4,0.38
0.25,0.21,0.24,0.33
0.34,0.32,0.29,0.4
0.57,0.42,0.44,0.52
0.33,0.32,0.29,0.36
0.35,0.26,0.3,0.39
0.27,0.35,0.37,0.3
0.39,0.41,0.39,0.42
0.4,0.45,0.42,0.49
0.37,0.33,0.35,0.43
0.39,0.44,0.44,0.48
0.35,0.37,0.34,0.42
0.53,0.42,0.38,0.47
0.37,0.35,0.36,0.39
0.36,0.4,0.36,0.49
0.45,0.33,0.39,0.38
0.36,0.26,0.31,0.3
0.43,0.33,0.32,0.38
0.34,0.43,0.36,0.46
0.2,0.22,0.28,0.31
0.38,0.36,0.38,0.47
0.27,0.25,0.22,0.37
0.34,0.37,0.34,0.51
0.31,0.31,0.32,0.42
0.38,0.36,0.32,0.4
0.39,0.41,0.38,0.4
0.4,0.48,0.48,0.56
0.31,0.31,0.28,0.31
0.41,0.4,0.4,0.49
0.42,0.31,0.3,0.35
0.45,0.42,0.36,0.56
0.43,0.39,0.46,0.43
0.35,0.36,0.35,0.41
0.4,0.37,0.38,0.47
0.32,0.36,0.44,0.44
0.32,0.26,0.23,0.39
0.32,0.29,0.33,0.34
0.33,0.29,0.31,0.35
0.47,0.45,0.42,0.48
0.33,0.35,0.28,0.4
0.33,0.3,0.32,0.34
0.29,0.34,0.31,0.39
0.44,0.39,0.39,0.4
0.43,0.38,0.43,0.5
0.37,0.37,0.35,0.36
0.4,0.42,0.36,0.43
0.35,0.25,0.31,0.31
0.33,0.34,0.28,0.46
0.46,0.38,0.45,0.39
0.34,0.3,0.26,0.33
0.53,0.47,0.5,0.45
0.3,0.27,0.29,0.4
0.27,0.24,0.25,0.35
0.33,0.29,0.28,0.39
0.33,0.34,0.3,0.43
0.47,0.47,0.37,0.43
0.33,0.33,0.34,0.35
0.38,0.34,0.35,0.32
0.41,0.44,0.46,0.48
0.35,0.31,0.31,0.41
0.34,0.3,0.36,0.31
0.38,0.39,0.36,0.42
0.38,0.37,0.36,0.44
0.38,0.42,0.38,0.47
0.31,0.24,0.24,0.35
0.33,0.32,0.38,0.31
0.25,0.32,0.31,0.41
0.44,0.43,0.37,0.38
0.35,0.32,0.33,0.38
0.45,0.38,0.32,0.46
0.37,0.39,0.33,0.39
0.33,0.36,0.28,0.51
0.41,0.32,0.32,0.42
0.38,0.44,0.37,0.47
0.37,0.39,0.39,0.42
0.34,0.29,0.32,0.39
0.48,0.4,0.39,0.54
0.39,0.38,0.38,0.46
0.42,0.35,0.35,0.39
0.3,0.34,0.33,0.37
0.46,0.37,0.37,0.5
0.32,0.3,0.32,0.41
0.4,0.39,0.34,0.43
0.28,0.35,0.32,0.4
0.33,0.4,0.36,0.43
0.33,0.29,0.27,0.43
0.41,0.39,0.37,0.43
0.45,0.52,0.58,0.44
0.53,0.47,0.41,0.54
0.62,0.6,0.57,0.54
0.52,0.6,0.49,0.54
0.56,0.58,0.62,0.58
0.41,0.58,0.49,0.55
0.56,0.56,0.5,0.55
0.53,0.65,0.58,0.59
0.48,0.5,0.46,0.5
0.41,0.49,0.49,0.5
0.5,0.48,0.45,0.46
0.44,0.5,0.5,0.5
0.57,0.48,0.49,0.56
0.53,0.54,0.59,0.42
0.5,0.55,0.45,0.58
0.42,0.49,0.45,0.42
0.6,0.58,0.5,0.51
0.5,0.52,0.49,0.43
0.5,0.5,0.53,0.47
0.42,0.41,0.36,0.47
0.59,0.52,0.52,0.57
0.45,0.45,0.35,0.57
0.49,0.5,0.51,0.42
0.38,0.37,0.4,0.33
0.57,0.58,0.51,0.52
0.68,0.73,0.62,0.53
0.46,0.51,0.49,0.47
0.57,0.49,0.48,0.47
0.58,0.6,0.51,0.55
0.46,0.52,0.44,0.52
0.33,0.45,0.47,0.49
0.55,0.55,0.54,0.41
0.65,0.57,0.56,0.58
0.44,0.44,0.42,0.58
0.53,0.47,0.43,0.48
0.47,0.47,0.46,0.59
0.55,0.51,0.45,0.62
0.59,0.57,0.55,0.5
0.57,0.51,0.53,0.58
0.56,0.63,0.58,0.58
0.5,0.52,0.53,0.49
0.5,0.56,0.5,0.58
0.54,0.51,0.6,0.45
0.44,0.43,0.47,0.55
0.43,0.56,0.58,0.58
0.63,0.5,0.6,0.5
0.47,0.51,0.49,0.51
0.53,0.53,0.54,0.43
0.44,0.57,0.53,0.49
0.45,0.44,0.49,0.43
0.61,0.58,0.59,0.48
0.59,0.6,0.58,0.51
0.49,0.46,0.49,0.44
0.46,0.55,0.49,0.41
0.46,0.6,0.52,0.46
0.51,0.56,0.55,0.52
0.62,0.53,0.48,0.55
0.53,0.57,0.53,0.57
0.52,0.57,0.5,0.51
0.64,0.58,0.58,0.52
0.48,0.47,0.48,0.55
0.44,0.44,0.52,0.43
0.52,0.53,0.51,0.48
0.41,0.51,0.58,0.43
0.52,0.55,0.55,0.51
0.48,0.55,0.52,0.52
0.46,0.51,0.54,0.41
0.63,0.62,0.61,0.58
0.58,0.6,0.66,0.59
0.56,0.64,0.58,0.54
0.57,0.58,0.58,0.56
0.53,0.51,0.46,0.51
0.52,0.46,0.48,0.42
0.6,0.47,0.51,0.49
0.49,0.48,0.47,0.5
0.54,0.47,0.41,0.53
0.47,0.48,0.46,0.47
0.51,0.6,0.56,0.47
0.43,0.54,0.56,0.57
0.54,0.61,0.5,0.55
0.68,0.58,0.56,0.49
0.45,0.46,0.42,0.52
0.42,0.41,0.51,0.57
0.52,0.48,0.5,0.51
0.45,0.41,0.4,0.43
0.53,0.5,0.44,0.52
0.47,0.47,0.53,0.53
0.55,0.51,0.52,0.59
0.55,0.61,0.53,0.56
0.6,0.54,0.56,0.57
0.51,0.63,0.58,0.53
0.48,0.47,0.49,0.44
0.55,0.59,0.57,0.52
0.61,0.46,0.49,0.52
0.62,0.57,0.49,0.57
0.51,0.6,0.52,0.55
0.46,0.48,0.5,0.48
0.51,0.55,0.56,0.54
0.62,0.53,0.49,0.47
0.52,0.54,0.53,0.44
0.58,0.51,0.5,0.44
0.56,0.53,0.55,0.52
0.51,0.48,0.56,0.5
0.63,0.51,0.57,0.48
0.47,0.47,0.59,0.54
0.56,0.58,0.49,0.58
0.51,0.56,0.57,0.52
0.43,0.46,0.44,0.52
0.44,0.48,0.47,0.5
0.4,0.42,0.37,0.44
0.54,0.52,0.52,0.56
0.51,0.51,0.52,0.42
0.37,0.42,0.43,0.53
0.43,0.53,0.43,0.52
0.66,0.59,0.48,0.43
0.62,0.6,0.53,0.58
0.44,0.46,0.38,0.48
0.46,0.52,0.48,0.56
0.54,0.48,0.47,0.49
0.54,0.52,0.45,0.58
0.48,0.44,0.45,0.51
0.57,0.56,0.52,0.39
0.51,0.44,0.53,0.48
0.53,0.49,0.58,0.48
0.55,0.54,0.51,0.5
0.43,0.47,0.46,0.49
0.61,0.6,0.68,0.42
0.55,0.65,0.58,0.59
0.59,0.59,0.54,0.56
0.63,0.63,0.59,0.6
0.51,0.61,0.57,0.57
0.58,0.48,0.44,0.43
0.45,0.54,0.53,0.49
0.61,0.56,0.42,0.54
0.71,0.62,0.65,0.55
0.45,0.49,0.41,0.52
0.51,0.6,0.55,0.52
0.53,0.51,0.5,0.49
0.49,0.46,0.46,0.56
0.41,0.44,0.34,0.5
0.54,0.56,0.58,0.48
0.55,0.58,0.6,0.57
0.46,0.46,0.53,0.5
0.54,0.71,0.63,0.59
0.51,0.52,0.47,0.49
0.62,0.59,0.6,0.56
0.55,0.52,0.52,0.52
0.48,0.54,0.55,0.4
0.51,0.55,0.58,0.51
0.55,0.55,0.52,0.52
0.5,0.55,0.57,0.57
0.55,0.52,0.59,0.48
0.46,0.45,0.47,0.48
0.51,0.52,0.48,0.52
0.4,0.47,0.48,0.5
0.44,0.48,0.48,0.47
0.51,0.49,0.48,0.47
0.45,0.54,0.41,0.5
0.5,0.54,0.43,0.48
0.5,0.51,0.55,0.51
0.49,0.51,0.49,0.5
0.38,0.44,0.47,0.43
0.56,0.52,0.55,0.46
0.5,0.57,0.49,0.44
0.53,0.46,0.46,0.48
0.47,0.44,0.4,0.61
0.48,0.44,0.48,0.44
0.6,0.6,0.59,0.5
0.48,0.38,0.45,0.44
0.49,0.46,0.44,0.47
0.48,0.52,0.51,0.5
0.48,0.49,0.41,0.44
0.48,0.5,0.42,0.43
0.57,0.63,0.62,0.43
0.56,0.43,0.46,0.45
0.56,0.5,0.5,0.55
0.35,0.4,0.5,0.43
0.48,0.52,0.54,0.46
0.41,0.51,0.48,0.6
0.4,0.41,0.42,0.47
0.56,0.45,0.51,0.48
0.48,0.61,0.54,0.59
0.42,0.43,0.44,0.45
0.44,0.47,0.43,0.57
0.65,0.6,0.58,0.56
0.57,0.49,0.49,0.47
0.55,0.53,0.49,0.53
0.51,0.51,0.52,0.41
0.54,0.5,0.49,0.53
0.56,0.54,0.58,0.58
0.5,0.55,0.52,0.53
0.56,0.51,0.48,0.53
0.46,0.54,0.54,0.53
0.46,0.48,0.47,0.46
0.48,0.55,0.51,0.55
0.51,0.51,0.46,0.57
0.61,0.57,0.54,0.54
0.54,0.54,0.52,0.52
0.68,0.63,0.55,0.56
0.61,0.52,0.57,0.51
0.47,0.46,0.47,0.45
0.58,0.65,0.56,0.54
0.57,0.48,0.55,0.54
0.5,0.52,0.52,0.5
0.45,0.49,0.42,0.41
0.55,0.43,0.52,0.45
0.58,0.7,0.66,0.53
0.62,0.61,0.51,0.63
0.48,0.52,0.49,0.47
0.58,0.64,0.5,0.66
0.52,0.53,0.47,0.43
0.46,0.58,0.51,0.49
0.4,0.55,0.55,0.49
0.61,0.58,0.57,0.51
0.54,0.48,0.49,0.52
0.57,0.49,0.47,0.51
0.6,0.65,0.63,0.59
0.46,0.51,0.45,0.44
0.49,0.47,0.44,0.56
0.44,0.44,0.41,0.56
0.56,0.45,0.42,0.44
0.51,0.49,0.48,0.47
0.6,0.56,0.59,0.53
0.51,0.55,0.55,0.44
0.51,0.51,0.54,0.49
0.57,0.56,0.49,0.51
0.51,0.45,0.52,0.42
0.53,0.49,0.49,0.52
0.55,0.55,0.54,0.56
0.48,0.48,0.44,0.58
0.48,0.5,0.44,0.51
0.5,0.52,0.57,0.46
0.66,0.53,0.54,0.44
0.54,0.57,0.54,0.55
0.53,0.61,0.55,0.54
0.52,0.55,0.54,0.48
0.52,0.45,0.5,0.52
0.44,0.47,0.47,0.5
0.47,0.41,0.43,0.4
0.49,0.61,0.54,0.49
0.53,0.45,0.49,0.5
0.38,0.47,0.46,0.4
0.56,0.68,0.49,0.57
0.65,0.55,0.59,0.55
0.54,0.51,0.51,0.46
0.59,0.57,0.46,0.56
0.53,0.5,0.53,0.5
0.59,0.5,0.47,0.52
0.54,0.55,0.53,0.53
0.41,0.39,0.4,0.54
0.38,0.35,0.45,0.37
0.5,0.46,0.43,0.46
0.51,0.47,0.51,0.59
0.6,0.64,0.54,0.6
0.59,0.47,0.57,0.46
0.43,0.4,0.38,0.48
0.53,0.5,0.52,0.54
0.43,0.46,0.4,0.51
0.55,0.72,0.57,0.56
0.44,0.5,0.51,0.47
0.45,0.51,0.46,0.53
0.53,0.49,0.56,0.5
0.48,0.55,0.5,0.5
0.43,0.51,0.56,0.53
0.56,0.65,0.56,0.56
0.5,0.59,0.55,0.58
0.41,0.5,0.49,0.51
0.42,0.51,0.49,0.49
0.4,0.53,0.48,0.43
0.58,0.53,0.6,0.42
0.51,0.5,0.52,0.52
0.54,0.52,0.48,0.59
0.5,0.5,0.48,0.58
0.42,0.45,0.44,0.54
0.49,0.44,0.52,0.48
0.54,0.59,0.55,0.52
0.52,0.53,0.49,0.47
0.46,0.42,0.46,0.41
0.5,0.42,0.45,0.42
0.44,0.49,0.49,0.42
0.48,0.44,0.51,0.63
0.53,0.67,0.6,0.64
0.55,0.59,0.57,0.63
0.47,0.48,0.46,0.51
0.46,0.45,0.45,0.45
0.58,0.5,0.48,0.59
0.55,0.43,0.42,0.44
0.52,0.44,0.49,0.53
0.46,0.45,0.45,0.6
0.57,0.51,0.55,0.49
0.48,0.45,0.56,0.53
0.49,0.67,0.55,0.54
0.4,0.42,0.48,0.42
0.64,0.55,0.53,0.45
0.4,0.44,0.38,0.56
0.57,0.67,0.54,0.64
0.57,0.65,0.54,0.48
0.53,0.54,0.46,0.58
0.47,0.51,0.49,0.48
